رَبَّنَآ أٰتِنَا فِي الدُّنْيَا حَسَنَةً وَّفِي الْأٰخِرَةِ حَسَنَةً وَّقِنَا عَذَابَ النَّارِ
رَبَّنَآ أَفْرِغْ عَلَيْنَا صَبْرًا وَثَبِّتْ أَقْدَامَنَا وَانصُرْنَا عَلَى الْقَوْمِ الْكَافِرِينَ
رَبَّنَا لَا تُؤَاخِذْنَآ إِنْ نَّسِينَآ أَوْ أَخْطَأْنَا - رَبَّنَا وَلَا تَحْمِلْ عَلَيْنَا إِصْرًا كَمَا حَمَلْتَهُ عَلَى الَّذِينَ مِن قَبْلِنَا - رَبَّنَا وَلَا تُحَمِّلْنَا مَا لَا طَاقَةَ لَنَا بِهِ وَاعْفُ عَنَّا وَاغْفِرْ لَنَا وَارْحَمْنَا أَنتَ مَوْلَانَا فَانصُرْنَا عَلَى الْقَوْمِ الْكَافِرِينَ
رَبَّنَا لَا تُزِغْ قُلُوبَنَا بَعْدَ إِذْ هَدَيْتَنَا وَهَبْ لَنَا مِن لَّدُنكَ رَحْمَةً  إِنَّكَ أَنتَ الْوَهَّابُ
رَبَّنَآ إِنَّنَآ أٰمَنَّا فَاغْفِرْ لَنَا ذُنُوبَنَا وَقِنَا عَذَابَ النَّارِ
رَبَّنَا مَا خَلَقْتَ هٰذَا بَاطِلًا سُبْحَانَكَ فَقِنَا عَذَابَ النَّارِ -  رَبَّنَآ إِنَّكَ مَن تُدْخِلِ النَّارَ فَقَدْ أَخْزَيْتَهُ  وَمَا لِلظَّالِمِينَ مِنْ أَنصَارٍ-  رَّبَّنَآ إِنَّنَآ سَمِعْنَا مُنَادِيًا يُّنَادِى لِلْإِيمَانِ أَنْ أٰمِنُوا بِرَبِّكُمْ فَأٰمَنَّا  رَبَّنَا فَاغْفِرْ لَنَا ذُنُوبَنَا وَكَفِّرْ عَنَّا سَيِّأٰتِنَا وَتَوَفَّنَا مَعَ الْأَبْرَارِ-  رَبَّنَا وَأٰتِنَا مَا وَعَدْتَّنَا عَلٰى رُسُلِكَ وَلَا تُخْزِنَا يَوْمَ الْقِيَامَةِ  إِنَّكَ لَا تُخْلِفُ الْمِيعَادَ
رَبَّنَا ظَلَمْنَآ أَنفُسَنَا وَإِن لَّمْ تَغْفِرْ لَنَا وَتَرْحَمْنَا لَنَكُونَنَّ مِنَ الْخَاسِرِينَ
رَبَّنَآ أَفْرِغْ عَلَيْنَا صَبْرًا وَّتَوَفَّنَا مُسْلِمِينَ
اَنْتَ وَلِيُّنَا فَاغْفِرْلَنَا وَارْحَمْنَا وَاَنْتَ خَيْرُ الْغَافِرِيْنَ
رَبَّنَا لَا تَجْعَلْنَا فِتْنَةً لِّلْقَوْمِ الظَّالِمِينَ  وَنَجِّنَا بِرَحْمَتِكَ مِنَ الْقَوْمِ الْكَافِرِينَ
فَاطِرِ السَّمٰوَاتِ وَالْاَرْضِ اَنْتَ وَلِىِّ فِى الدُّنْيَا وَالْاٰخِرَةِ تَوَفَّنِىْ مُسْلِمًا وَّالْحِقْنِىْ بِالصَّالِحِيْنَ
رَبِّ اجْعَلْنِي مُقِيمَ الصَّلٰوةِ وَمِن ذُرِّيَّتِي - رَبَّنَا وَتَقَبَّلْ دُعَآءِ -  رَبَّنَا اغْفِرْ لِى وَلِوَالِدَىَّ وَلِلْمُؤْمِنِينَ يَوْمَ يَقُومُ الْحِسَابُ
رَبِّ ارْحَمْهُمَا كَمَا رَبَّيٰنِىْ صَغِيْرًا
رَّبِّ أَدْخِلْنِي مُدْخَلَ صِدْقٍ وَّأَخْرِجْنِي مُخْرَجَ صِدْقٍ وَّاجْعَل لِّى مِنْ لَّدُنْكَ سُلْطَانًا نَّصِيرًا
رَبَّنَآ أٰتِنَا مِنْ لَّدُنْكَ رَحْمَةً وَّهَيِّئْ لَنَا مِنْ أَمْرِنَا رَشَدًا
رَبِّ اشْرَحْ لِى صَدْرِى  وَيَسِّرْ لِى أَمْرِى   وَاحْلُلْ عُقْدَةً مِّن لِّسَانِى  يَفْقَهُوا قَوْلِى
رَبِّ زِدْنِىْ عِلْمًا
أَنِّىْ مَسَّنِىَ اضُّرُّ وَأَنْتَ أَرْحَمُ الرَّاحِمِينَ
رَبِّ لاَتَذَرْنِىْ فَرْدًا وَّاَنْتَ خَيرُ الْوَارِثينَ
رَبِّ اَنْزِلْنِى مُنْزَلًا مُّبَارَكًا وَّاَنْتَ خَيْرُ الْمُنْزِلِينَ
رَبِّ أَعُوذُبِكَ مِنْ هَمَزٰتِ الشَيٰطِينِ وَأَعُوذُبِكَ رَبِّ أَنْ يَّحْضُرُونِ
رَبَّنَآ اٰمَنَّ فَاغْفِرْلَنَا وَارْحَمْنَا وَأَنْتَ خَيْرُ ارّٰحِمِينَ
رَبَّنَا اصرِفْ عَنَّا عَذَابَ جَهَنَّمَ - اِنَّ عَذَابَهَا كَانَ غَرَامًا
رَبَّنَا هَبْ لَنَا مِنْ أَزْوَاجِنَا وَذُرِّيّٰتِنَا قُرَّةَ أَعْيُنٍ وَّ اجْعَلْنَا لِلْمُتَّقِينَ اِمَامًا
رَبِّ هَبْ لِى مِنْ لَّدُنْكَ ذُرِّيَّةً طَيِّبَةً إِنَّكَ سَمِيْعُ الدُّعَآءِ
رّبِّ أَوْزِعْنِى أَنْ أَشْكُرَ نِعْمَتَكَ الَّتِى أَنْعَمْتَ عَلَىَّ وَعَلٰى وَالِدَىَّ وَأَنْ  اَعْمَلَ صَالِحًا تَرْضَاهُ وَأَدْخِلْنِى بِرَحْمَتِكَ فِى عِبَادِكَ الصّٰلِحِينَ
رَبِّ إِنِّى لِمَا أَنْزَلْتَ إِلَىَّ مِنْ خَيْرٍ فَقِيْرٌ
رَبِّ انْصُرْنِى عَلَى الْقَوْمِ الْمُفْسِدِينَ
رَبَّنَا وَسِعْتَ كُلَّ شَىْءٍ رَّحْمَةً وَّعِلْمًا فَاغْفِرْ لِلَّذِينَ تَابُوا وَاتَّبَعُوا سَبِيلَكَ وَقِهِمْ عَذَابَ الْجَحِيمِ - رَبَّنَا وَأَدْخِلْهُمْ جَنّٰتِ عَدْنِ نِ الَّتِى وَعَدْتَّهُمْ وَمَنْ صَلَحَ مِنْ أٰبَآءِـهِمْ وَأَزْوَاجِهِمْ وَذُرِّيّٰتِهِمْ إِنَّكَ أَنْتَ الْعَزِيزُ الْحَكِيمُ - وَقِهِمُ السَّيِّـءَـاتِ - وَمَنْ تَقِ السَّيِّـءَـاتِ يَوْمَـءِـذٍ فَقَدْ رَحِمْتَهُ وَذٰلِكَ هُوَ الْفوْزُ الْعَظِيمُ
وَأَصْلِحْ لِى فِى ذُرِّيَّتِى إِنِّى تُبْتُ إِلَيْكَ وَإِنِّى مِنَ الْمُسْلِمِينَ
أَنِّى مَغْلُوبٌ فَانْتَصِرْ
رَبَّنَا اغْفِرْلَنَا وَلِإِخْوَانِنَا الَّذِينَ سَبَقُونَا بِالْإِيمَانِ وَلَا تَجْعَلْ فِى قُلُوبِنَاغِلًّالِّلَّذِينَ اٰمَنُوا رَبَّنَآ إِنَّكَ رَءُوفٌ رَّحِيمٌ
رَبَّنَا عَلَيْكَ تَوَكَّلْنَا وَإِلَيْكَ أَنَبْنَا وَإِلَيْكَ الْمَصِيرُ - رَبَّنَا لَا تَجْعَلْنَا فِتْنَةً لِّلَّذِينَ كَفَرُوا وَاغْفِرْلَنَا رَبَّنَا إِنَّكَ أَنْتَ الْعَزِيزُ الْحَكِيمُ
رَبَّنَآ أَتْمِمْ لَنَا نُورَنَا وَاغْفِرْلَنَا إِنَّكَ عَلٰى كُلِّ شَىْءٍ قَدِيرٌ
رَتِّ اغْفِرْلِى وَلِوَالِدَىَّ وَلِمَنْ دَخَلَ بَيْتِىَ مُؤْمِنًا وَّلِلْمُؤْمِنِينَ وَالْمُؤْمِنٰتِ
أَللّٰهُمَّ اغْسِلْ خَطَايَاىَ بِمَآءِ الشَّلْجِ وَالْبَرْدِ وَنَقِّ قَلْبِى مِنَ الْخَطَايَا كَمَا يُنَقَّى الثَّوْبُ الْأَبْيَضُ مِنَ الدَّنَسِ وَبَاعِدْ بَيْنِى وَبَيْنَ خَطَايَاىَ كَمَا بَاعَدْتَّ بَيْنَ الْمَشْرِقِ وَالْمَغْرِبِ
أَللّٰهُمَّ أٰتِ نَفْسِى تَقْوٰهَا وَزَكِّهَآ أَنْتَ خَيْرُ مَنْ زَكّٰهَا أَنْتَ وَلِيُّهَا وَمَوْلَاهَا
إِنَّا نَسْـءَـلُكَ مِنْ خَيْرَ مَا سَـءَـلَكَ مِنْهُ نَبِيُّكَ مُحَمَّدٌ صَلَّى اللّٰهُ عَلَيْهِ وَسَلَّمَ
إِنَّا نَسْـءَـلُكَ عَزَآءِـمَ مَغْفِرَتِكَ وَمُنْجِيَاتِ أَمْرِكَ وَالسَّلَامَةَ مِنْ كُلِّ اِثْمٍ وَّالْغَنِيْمَتَ مِنْ كُلِّ بِرٍّ وَّالْفَوْزَ بِالْجَنَّةِ وَالنَّجَاةَ مِنَ النَّارِ
أَسْـءَـلُكَ عِلْمًا نَّافِعًا
أَللّٰهُمَّ اغْفِرْلِى ذُنُوْبِى وَخَطَـءِـى وَعَمَدِى
أَللّٰهُمَّ اغْفِرْلِى خَطِيـءَـتِى وَجَهْلِى وَإِسْرَافِى فِى أَمْرِى وَمَآ أَنْتَ أَعْلَمُ بِهِ مِنِّى
أَللّٰهُمَّ اغْفِرْلِى جِدِّى وَهَزْلِى
أَللّٰهُمَّ مُصَرَّفِ الْقُلُوبِ صَرِّفْ قُلُوبَنَا عَلٰى طَاعَتِكَ
أَللّٰهُمَّ اهْدِنِى وَسَدِّدْنِى
أَللّٰهُمَّ إِنِّىْ أَسْـءَـلُكَ الْهُدٰى وَاتُّقٰى وَالْعَفَافَ وَالْغِنٰى
أَللّٰهُمَّ أَصْلِحْ لِى دِينِىَ الَّذِى هُوَ عِصْمَةُ أَمْرِى وَأَصْلِحْ لِى دُنْيَاىَ الَّتِى فِيْهَا مَعَاشِى وَأَصْلِحْ لِى أٰخِرَتِىَ الَّتِى فِيْهَا مَعَادِى وَاجْعَلِ الْحَيٰوةَ زِيَادَةًلِّى فِى كُلِّ خَيْرٍ وَّاجْعَلِ الْمَوْتَ رَاحَةًلِّى مِنْ كُلِّ شَرٍّ
أَللّٰهُمَّ اغْفِرْلِى وَارْحَمْنِى وَعَافِنِى وَارْزُقْنِى - أَللّٰهُمَّ إِنِّى أَعُوذُبِكَ مِنَ الْعَجْزِ وَالْكَسَلِ وَالْجُبْنِ وَالْهَرَمِ وَالْمَغْرَمِ وَالْمَـءْـثَمِ وَمِنْ عَذَابِ النَّارِ وَفِتْنَةِ النَّارِ وَفِتْنَةِ الْقَبْرِ وَعَذَابِ الْقَبْرِ وَشَرِّ فِتْنَةِ الْغِنٰى وَشَرِّ فِتْنَةِ الْفَقْرِ وَمِنْ شَرِّ فِتْنَةِ الْمَسِيحِ الدَّجَّالِ وَمِنْ فِتْنَةِ الْمَحْيَا وَالْمَمَاتِ وَمِنَ الْقَسْوَةِ وَالْغَفْلَةِ وَالْعَيْلَةِ وَالذِّلَّةِ وَالْمَسْكَنَةِ وَالْكُفْرِ وَالْفُسُوقِ وَالشِّقَّاقِ وَالسُّمْعَةِ وَالرِّيَآءِ وَمِنَ الصَّمَمِ وَالْبَكَمِ وَالْجُنُونِ وَالْجُذَامِ وَسَيِّـءِـى الْأَسْقَامِ وَضَلَعِ الدَّيْنِ وَمِنَ الْهَمِّ وَالْحُزْنِ وَالْبُخْلِ وَغَلَبَةِ الرِّجَالِ وَمِنْ أَنْ أُرَدَّ إِلٰى أَرْذَلِ الْعُمُرِ وَفِتْنَةِ الدُّنْيَا وَمِنْ عِلْمٍ لَّا يَنْفَعُ وَقَلْبٍ لَّا يَخْشَعُ وَمِنْ نَّفْسٍ لَّا تَشْبَعُ وَمِنْ دَعْوَةٍ لَّايُسْتَجَابُ لَهَا
