আয় আল্লাহ্! আমাকে ধৈর্য্য দাও; আয় আল্লাহ্! আমাকে শোকর দাও; আয় আল্লাহ্! আমি যেন আমাকে ছোট জানি, অন্য লোক যেন আমাকে মনে করে বড়।
আয় আল্লাহ্! দান কর আমাদের দেশে বরকত (দ্বীন), সৌন্দর্য (শস্য ফসলাদি), শান্তি (সুবিচার) এবং আমাকে মাহরূম করিও না উহার বরকত (ভালাই) হইতে যাহা কিছু তুমি আমাকে দান করিয়াছ এবং যাহা আমার মিলিবার নয় তাহার মধ্যে আমাকে লিপ্ত হইতেও দিও না।
আয় আল্লাহ্! তুমি আমাকে যেমন সুন্দর সূরত (আকৃতি) দান করিয়াছ তেমনই সুন্দর সীরত (প্রকৃতি, স্বভাব চরিত্র) দান কর।
আয় আল্লাহ্! দূর করিয়া দাও আমার দীলের রাগ এবং যতদিন আমাকে জীবিত রাখ সেই সব ফেতনা হইতে আমাকে বাঁচাইয়া রাখিও যাহার মধ্যে পড়িয়া লোক গোমরাহ (বুদ্ধিহীন ও ধর্মহীন) হইয়া পড়ে।
আয় আল্লাহ্! মওতের সময় আমাকে ঈমানের দলীল (কালেমা) শিখাইয়া দাও।
আয় আল্লাহ্! অদ্যকার দিনের যাহা কিছু ভালাই তাহাও আমি তোমার নিকট চাই এবং যাহা কিছু ভালাই আছে এই দিনের পরে তাহাও চাই। আয় আল্লাহ্! আমি তোমার নিকট চাই এই দিনের ভালাই এবং এই দিনের জিত এবং এই দিনের সাহায্য, এই দিনের নূর, এই দিনের বরকত ও এই দিনের হেদায়েত।
আয় আল্লাহ্! আমি তোমার নিকট মাফ চাই, শান্তি চাই আমার দীন সম্বন্ধে এবং দুনিয়া, পরিবারবর্গ এবং মাল সম্বন্ধে। আয় আল্লাহ্! আমার দোষ ঢাকিয়া রাখিও এবং ভয়ের জায়গায় আমাকে শান্তিতে রাখিও। আয় আল্লাহ্! আমাকে তোমার হেফাযতে রাখিও আমার সামনের দিক হইতে, পিছনের দিক হইতে, ডান দিক হইতে, বাম দিক হইতে ও উপরের দিক হইতে এবং তোমার আযমত ও বড়ত্বের দোহাই - আমাকে যেন নিম্নদিক দিয়াও কিছুতে ধরিতে না পারে।
হে চিরঞ্জীব! হে চিরস্থায়ী তোমার রহমতের আশ্রয় চাই; তুমি ভাল করিয়া দাও আমার অবস্থা এবং এক পলকের জন্যও আমাকে আমার নফসের উপর ছাড়িয়া দিও না।
দোহাই তোমার জাতের সেই নূরের (জ্যোতির), যদ্বারা আলোকিত হইয়াছে আসমানসমূহ যমীন এবং দোহাই তোমার সেই হকের (সত্যের) যাহা তোমার সৃষ্ট জীবের উপর আছে এবং দোহাই তোমার সেই মেহেরবানীর, যদ্বারা ভিক্ষা প্রার্থীগণের কিছু হক তুমি নিজ যিম্মায় লইয়াছ; আমাকে মাফ করিয়া দাও এবং আমাকে বাঁচাইয়া লও দোযখের আযাব হইতে নিজ অসীম ক্ষমতাবলে।
আয় আল্লাহ্! সুযোগ করিয়া দাও আমি যেন অদ্যকার দিনের প্রথম ভাগে নেক কাজ করিতে পারি এবং মধ্য ভাগে (যে সব দুনিয়ার কাজ করি তাহাতে) যেন কৃতকার্য লাভ করিতে পারি এবং শেষ ভাগে ফালায়েহ দারায়েন (দুই জাহানের কৃতকার্যতা) হাছিল করিতে পারি। ইয়া আরহামার-রাহিমীন - ওহে দয়ার সাগর! আমি তোমার নিকট দুনিয়া ও আখেরাতের দু'জাহানের ভালাই চাই।
আয় আল্লাহ্! আমার গোনাহ মাফ করিয়া দাও; আমার শয়তানকে বিতাড়িত করিয়া দাও; আমার বন্ধক ছুটাইয়া দাও, আমার নেকের পাল্লা ভারী করিয়া দাও, আমাকে উচ্চ দরজার লোকদের মধ্যে স্থান দান কর।
আয় আল্লাহ্! তোমার আযাব হইতে আমাকে বাঁচাইয়া রাখিও যে দিন তুমি পুনর্জীবিত করিয়া দাঁড় করাইবে তোমার সমস্ত বান্দাদের।
আয় আল্লাহ্! তুমি সপ্ত আকাশ এবং উহাদের নীচে যাহা কিছু আছে সে সবের মালিক, তুমিই যমীনসমূহ এবং তদুপরি যাহা কিছু আছে সে সবের মালিক এবং তুমিই - শয়তানসমূহ ও তাহারা যাহা কিছু অনিষ্ট সাধন ও অধর্মের পথে পরিচালনা করে সে সবের মালিক, আমি তোমার আশ্রয় গ্রহণ করিতেছি তোমার যাবতীয় সৃষ্ট বস্তু বা জীবের যাবতীয় অনিষ্ট হইতে; আমার উপর যেন কেহ কোনরূপ অত্যাচার অনাচার বা অবিচার করিতে না পারে। তোমার নাম পবিত্র, বরকতময়; তোমার আশ্রিত জন সর্ব বিষয়ে মজবুত ও সুরক্ষিত।
আয় আল্লাহ্! তুমিই মালিক, তুমিই বাদশাহ, তুমিই মা'বুদ, অন্য কেহই তোমার শরীক নাই, আমাতে একমাত্র তোমারই অধিকার, তাহা ব্যতীত অন্য কাহারও কোনরূপ অধিকার নাই; তুমি পবিত্র, তুমি বিনে আমার অন্য কেহই নাই। আয় আল্লাহ্! আমার অপরাধ ও গোনাহর জন্য তোমার নিকট ক্ষমা চাহিতেছি এবং তোমারই দয়া-রহমত ভিক্ষা চাহিতেছি।
আয় আল্লাহ্! আমার গোনাহ মাফ করিয়া দাও, আমার ঘর কোশাদা ও সুপ্রশস্ত করিয়া দাও এবং আমার রুযিতে বরকত দাও।
আয় আল্লাহ্! আমাকে দলভুক্ত করিয়া দাও তাহাদের যাহারা বেশী বেশী তওবা করে এবং তোমার তরফ রুজু থাকে এবং তাহাদের যাহারা খুব বেশী পাক-সাফ থাকে।
আয় আল্লাহ্! আমাকে মাফ কর, আমাকে হেদায়েতের উপর তথা সদা সৎপথে রাখ, আমাকে রুযি দান কর, আমাকে সুখ-স্বাচ্ছন্দ্যে রাখ।
আয় আল্লাহ্! যে বিষয়ে মতভেদ হয় তাহার মধ্যে যেইটা হক (সত্য) সেইটাই তুমি মেহেরবানী করিয়া আমার মনের মধ্যে ঢালিয়া দিও।
আয় আল্লাহ্! আমাদের মনের মধ্যে নূর দান কর, আমার চোখের মধ্যে নূর দান কর, আমার কানের মধ্যে নূর দান কর, আমার ডানে, বামে নূর দান কর; পিছনে, সামনে, চতুর্দিকে নূর দান কর, আমাকে নূর দান কর, আমার স্নায়ুতে নূর দান কর, আমার রক্তে ও মাংসে নূর দান কর। আমার পশমে পশমে নূর দান কর, আমার চর্মে নূর দান কর, আমার জিহ্বায় নূর দান কর। আমার নফসের ভিতর নূর দান কর, আমাকে অতি বেশী এবং বড় নূর দান কর, আমাকে পূর্ণ নূরই নূর বানাইয়া দাও, আমার উর্ধ্বে নূর দান কর এবং আমার নিম্নে নূর দান কর। আয় আল্লাহ্! আমাকে নূর দান কর।
আয় আল্লাহ্! আমাদের জন্য তোমার রহমতের দ্বারসমূহ খুলিয়া দাও এবং তোমার রিযকের দ্বারসমূহ আমাদের জন্য সহজ করিয়া দাও।
আয় আল্লাহ্! আমাকে বাঁচাইয়া রাখ শয়তানের হাত হইতে।
আয় আল্লাহ্! আমি ভিক্ষা চাই তোমার নিকট তোমার অনুগ্রহ।
আয় আল্লাহ্! ক্ষমা করিয়া দাও আমার সমস্ত ত্রুটি এবং সমস্ত অপরাধ। আয় আল্লাহ্! আমাকে উচ্চ মর্তবা দান কর, আমাকে জীবনী শক্তি দান কর, এবং আমাকে রিযক দান কর এবং আমাকে টানিয়া নেও ভাল কাজ এবং ভাল স্বভাবের দিকে; নিশ্চয়ই টানিয়া নিতে পারে না ভাল কাজ ও ভাল স্বভাবের দিকে এবং ফিরাইয়া রাখিতে পারে না মন্দ কাজ ও মন্দ স্বভাব হইতে তুমি ব্যতিত অন্য কেহ।
আয় আল্লাহ্! আমি ভিক্ষা চাই তোমার নিকট হালাল রুযি এবং তোমার দরবারে উপকারী বিদ্যা এবং তোমার দরবারে গৃহীত আমল।
আয় আল্লাহ্! আমি তোমার গোলাম এবং গোলামজাদা, আমার বাপ তোমার গোলাম, আমার মা তোমার বান্দী, আমি সম্পূর্ণ তোমার অধীনস্থ, আমার মাথা চুল পর্যন্ত তোমার হাতের মধ্যে, আমার মাথা হইতে পা পর্যন্ত সমস্ত অস্তিত্ব তোমারই হুকুমের জারী। তুমি আমার জন্য যাহা কিছু নির্ধারিত কর তাহা সবই ন্যায্য। আমি তোমার নিকট প্রার্থনা করি - তোমার যত নাম আছে, যে সব নাম তুমি নিজের জন্য পছন্দ করিয়াছ বা তোমার পবিত্র কিতাবে নাযিল করিয়াছ বা শিক্ষা দিয়াছ তোমার কোন খাছ বান্দাকে বা অন্য কাহাকেও শিখাও নাই - শুধু নিজেই এল্মে গায়েবের মধ্যে রাখিয়াছ - সেই সব নামের দোহাই দিয়া যে, মহান কোর'আনের দ্বারা আমার হৃদয়কে প্রস্ফুটিত করিয়া দাও এবং চক্ষুকে আলোকিত করিয়া দাও এবং আমার সব চিন্তা সব দূঃখ উহার দ্বারা দূর করিয়া দাও।
আয় আল্লাহ্! আয় জিব্রাঈল, মিকাঈল এবং ইস্রাফীলের খোদা! আয় ইব্রাহীম, ইসমাঈল এবং ইসহাকের খোদা! তুমি আমাকে শান্তিতে রাখ এবং তোমারই সৃষ্ট সবকিছু, অতএব, কাহাকেও আমার উপর প্রবল করিও না এরূপ কোন বিষয়ে যাহা সহ্য করা আমার ক্ষমতার বাহিরে।
আয় আল্লাহ্! তোমার হালাল রুযি আমাকে প্রচুর পরিমাণে দান করিয়া আমাকে দূরে রাখ তোমার হারাম হইতে এবং নিজ দয়াগুনে - এক তুমি বিনে অন্য কাহার মুখাপেক্ষী আমাকে হইতে দিও না।
আয় আল্লাহ্! তুমি আমার কথাবার্তা শুনিতেছ, আমার স্থান দেখিতেছ, আমার গুপ্ত ও প্রকাশ্য সব অবস্থা জানিতেছ, তোমার নিকট গুপ্ত নাই আমার কোনও বিষয়। আমি বিপদগ্রস্ত কাংগাল, তোমার নিকট ফরিয়াদ করিতেছি, তোমার নিকট আশ্রয় ভিক্ষা করিতেছি, তোমার ভয়ে ভীত শঙ্কিত, আমি অপরাধ স্বীকার করিয়া ভিক্ষুকের ন্যায় তোমার দ্বারে ভিক্ষা মাগিতেছি এবং তোমার নিকট কাকুতি মিনতি করিয়া ক্ষমা প্রার্থনা করিতেছি অতি হেয় অপরাধীর ন্যায় এবং তোমার নিকট দোয়া ও প্রার্থনা করিতেছি অতি ভীত ও বিপদগ্রস্ত হইয়া - মাটিতে মস্তক রাখিয়া, চোখের পানিতে বুক ভাসাইয়া, সমস্ত শরীরকে তোমার সামনে নত ও পদদলিত করিয়া এবং মাটিতে নাক রগড়াইয়া। আয় আল্লাহ্! তুমি আমার দোয়া ফিরাইয়া দিও না, আমাকে খালি হারে ফিরাইও না, আমার প্রতি সদয় হও, আমাকে দয়া কর হে সর্বোত্তম ভিক্ষা চাহিবার স্থান, হে সর্বোৎকৃষ্ট দাতা! আয় আল্লাহ্! তোমারই দরবারে আমার নালিশ; আমি দুর্বল, আমি কৌশল ও চালাকির তদবীর জানি না; লোকের নিকট আমার কোন সম্মান প্রতিপত্তি নাই, সকলেই আমাকে তুচ্ছ হেয় মনে করে; ইয়া আরহামার-রাহেমীন! আমাকে কার উপর সোপর্দ করিবে? শত্রুর হাতে? যে আমার উপর অত্যাচার করিবে। বা মিত্রের হাতে? যে তোমারই প্রদত্ত বলে বলিয়ান হইয়া আমার সর্ব সম্পত্তির উপর জোর-দখল করিয়া রাখিয়াছে? এক তুমি যদি আমার উপর অসন্তুষ্ট না হও তবে আমি এ সবের কিছুই পরওয়া করি না, এ সবের চিন্তা আমার নাই, তবে তুমি তোমার অনুগ্রহে আমাকে যদি সুখে-শান্তিতে রাখ তাহাই আমার জন্য প্রশস্ত।
আয় আল্লাহ্! আমাদিগকে এমন দীল দাও যাহা প্রেমবেদনায় ব্যথিত, তোমার সামনে অবনত এবং তোমার দ্বীনের কাজে চির রত থাকে।
আয় আল্লাহ্! আমাকে ঈমান দান কর যাহা আমার অন্তরের অন্তস্থল ছাইয়া থাকে এবং আমাকে এমন দৃঢ় ইয়াকীন এবং অটল ও খাঁটি  বিশ্বাস দান কর যাহাতে আমার মনের ধারণা ও গতিই যেন এইরূপ হইয়া যায় যে, তুমি যাহা আমার জন্য নির্ধারিত করিয়া রাখিয়াছ তাহাই হইবে; তদতিরিক্ত বিন্দুমাত্রও হইতে পারিবে না। এবং তুমি যাহা কিছু রুযি আমার জন্য নির্ধারিত করিয়া দিয়াছ তাহাতেই যেন আমি অন্তরের সহিত সন্তুষ্ট থাকিতে পারি।
আয় আল্লাহ্! তোমার প্রশংসা করিয়া কে শেষ করিতে পারে? একমাত্র তুমিই তোমার গুনাবলী ও প্রশংসা জান, তাছাড়া আমরা যতই তোমার প্রশংসা বা গুনকীর্তন করি না কেন তদপেক্ষা তুমি বহু উচ্চে, বহু উত্তম। আয় আল্লাহ্! বাঁচাইয়া রাখ আমাকে খারাপ আখলাক (স্বভাব চরিত্র) খারাপ আমল (কার্যকলাপ) খারাপ মনের গতি-নফসানি খাহেশ এবং খারাপ রোগ ও পীড়া হইতে। আয় আল্লাহ্! তোমার নিকট পানাহ চাহিতেছি সেই সমস্ত খারাপ জিনিস হইতে যে সব হইতে হযরত মুহাম্মদ মোস্তফা সাল্লাল্লাহু আলাইহি ওয়া সাল্লাম পানাহ চাহিয়াছেন। আয় আল্লাহ্! আমাদের থাকিবার বাড়িতে খারাপ প্রতিবেশী হইতে পানাহ দাও; বিদেশ প্রবাসের প্রতিবেশী-ত কিছুক্ষণ পরে চলিয়াই যায়। আয় আল্লাহ্! শত্রুকে আমাদের মোকাবেলায় জয়ী হইতে দিও না এবং আমাদের এমন কোন দুরবস্থায় ফেলিও না যাহা দেখিয়া শত্রুপক্ষ খুশী হইতে পারে। আয় আল্লাহ্! অনাহার-যন্ত্রনা হইতে আমাদের বাঁচাইয়া রাখিও; এই যন্ত্রনা বড়ই সাঙ্ঘাতিক যন্ত্রনা (কেননা, ইহা কিছুতেই নিভে না)। আয় আল্লাহ্! আমানতের খেয়ানত হইতে আমাদের বাঁচাইয়া রাখিও; ইহা বড়ই সাঙ্ঘাতিক পাপ, ইহার পরিণাম বড়ই খারাপ। আয় আল্লাহ্! জিহাদের ময়দানে যেন পিছে না হটি বা ধর্মকর্মে যেন আমরা কোন সময় সন্দিহান না হই। আয় আল্লাহ্! সব রকমের ফেতনা হইতে - প্রকাশ্য বা গুপ্ত আমাদিগকে বাঁচাও। আয় আল্লাহ্! মন্দ দিন হইতে, মন্দ রাত হইতে ও মন্দ মুহূর্ত হইতে এবং মন্দ সঙ্গী হইতে আমাদের বাঁচাইয়া রাখ।